…
## What is mean total number of steps taken per day?

First we calculate the total of number of steps taken per day:


```r
activity %>%
  group_by(date) %>%
  summarize(totalSteps = sum(steps, na.rm = TRUE))
```

```
## # A tibble: 61 × 2
##    date       totalSteps
##    <date>          <int>
##  1 2012-10-01          0
##  2 2012-10-02        126
##  3 2012-10-03      11352
##  4 2012-10-04      12116
##  5 2012-10-05      13294
##  6 2012-10-06      15420
##  7 2012-10-07      11015
##  8 2012-10-08          0
##  9 2012-10-09      12811
## 10 2012-10-10       9900
## # ℹ 51 more rows
```
…
